{
  "currentPage": 1,
  "pageSize": 5,
  "totalPages": 10,
  "totalItems": 50,
  "transactions": [
    {
      "id": 1014759595,
      "date": "2024-01-15 12:00:00",

      "reference": "Purchase of smartphone ",
      "status": "Completed",
      "merchantDetails": "Tech Gadgets Unlimited ",
      "amount": "-50.00",
      "currency": "€",
      "balance": "950.00",
      "category": {
        "id": 1,
        "name": "Groceries",
        "icon": "groceries_icon.png"
      },
      "user": {
        "id": 1,
        "avatar": "user1_avatar.png",
        "name": "John Doe"
      },
      "card": {
        "id": 11746475858,
        "cardNumber": "1234567890123456",
        "cardType": "Debit",
        "expirationDate": "12/2026",
        "cvv": "123",
        "user": {
          "id": 1,
          "avatar": "user1_avatar.png",
          "name": "John Doe"
        }
      }
    },
    {
      "id": 102,
      "date": "2024-01-16 11:00:00",
      "reference": "payment for vegetables",
      "status": "Pending",
      "merchantDetails": "Fresh Farm Produce Market",
      "amount": "-100.00",
      "currency": "€",
      "balance": "850.00",
      "category": {
        "id": 2,
        "name": "Shopping",
        "icon": "shopping_icon.png"
      },
      "user": {
        "id": 2,
        "avatar": "user2_avatar.png",
        "name": "Alice Johnson"
      },
      "card": {
        "id": 1248585855858,
        "cardNumber": "2345678901234567",
        "cardType": "Credit",
        "expirationDate": "11/2025",
        "cvv": "456",
        "user": {
          "id": 2,
          "avatar": "user2_avatar.png",
          "name": "Alice Johnson"
        }
      }
    },
    {
      "id": 1036778989,
      "date": "2024-01-17 10:00:00",
      "reference": "co-friendly cleaning service March ",
      "status": "Completed",
      "merchantDetails": "GEcoClean Solutions ",
      "amount": "-20.00",
      "currency": "€",
      "balance": "870.00",
      "category": {
        "id": 3,
        "name": "Transport",
        "icon": "transport_icon.png"
      },
      "user": {
        "id": 3,
        "avatar": "user3_avatar.png",
        "name": "Bob Smith"
      }
    },
    {
      "id": 10424785595,
      "date": "2024-01-18 09:00:00",
      "reference": "cleaning service",
      "status": "Completed",
      "merchantDetails": "EcoClean Solutions ",
      "amount": "-30.00",
      "currency": "€",
      "balance": "840.00",
      "category": {
        "id": 4,
        "name": "Dining",
        "icon": "dining_icon.png"
      },
      "user": {
        "id": 4,
        "avatar": "user4_avatar.png",
        "name": "Cathy Green"
      },
      "card": {
        "id": 13677898900,
        "cardNumber": "3456789012345678",
        "cardType": "Debit",
        "expirationDate": "10/2024",
        "cvv": "789",
        "user": {
          "id": 4,
          "avatar": "user4_avatar.png",
          "name": "Cathy Green"
        }
      }
    },
    {
      "id": 1055666868688,
      "date": "2024-01-19 08:00:00",
      "reference": "Transfer",
      "status": "Completed",
      "merchantDetails": "Julia",
      "amount": "+200.00",
      "currency": "€",
      "balance": "1040.00",
      "category": {
        "id": 5,
        "name": "transfer",
        "icon": "electronics_icon.png"
      },
      "user": {
        "id": 5,
        "avatar": "user5_avatar.png",
        "name": "Eve Martin"
      }
    }
  ]
}
